%YAML 1.1
%TAG !u! tag:unity3d.com,2011:
--- !u!114 &11400000
MonoBehaviour:
  m_ObjectHideFlags: 0
  m_CorrespondingSourceObject: {fileID: 0}
  m_PrefabInstance: {fileID: 0}
  m_PrefabAsset: {fileID: 0}
  m_GameObject: {fileID: 0}
  m_Enabled: 1
  m_EditorHideFlags: 0
  m_Script: {fileID: 11500000, guid: ab13f6310b6f52f4aa45f3e3718db39f, type: 3}
  m_Name: FireBall
  m_EditorClassIdentifier: 
  skillName: Fire Wheel
  description: Can attack with ranged fire area. Can damage itself
  effect: {fileID: 1727626132299242, guid: b0bc1b6b391734647b9bb142bafc0819, type: 3}
