%YAML 1.1
%TAG !u! tag:unity3d.com,2011:
--- !u!114 &11400000
MonoBehaviour:
  m_ObjectHideFlags: 0
  m_CorrespondingSourceObject: {fileID: 0}
  m_PrefabInstance: {fileID: 0}
  m_PrefabAsset: {fileID: 0}
  m_GameObject: {fileID: 0}
  m_Enabled: 1
  m_EditorHideFlags: 0
  m_Script: {fileID: 11500000, guid: 8b92181e30435784dbc6e3e4b1b2bb6e, type: 3}
  m_Name: _ 16
  m_EditorClassIdentifier: 
  id: 16
  sprite: {fileID: 21300000, guid: 9936b75973c47bd448dace2c1579b6f0, type: 3}
  cardName: Eilistraee's Chosen
  description: 
  costResources: 02000000
  costQtd: 01000000
  category: 1
  collectskills:
  - {fileID: 11400000, guid: bf514e1ea546ce14bb62cbce93af71a9, type: 2}
  collectQtd: 01000000
  combatskills: []
  combatQtd: 
  clip: {fileID: 0}
  Status: {x: 0, y: 1}
  effect: {fileID: 0}
  keycode: 
