%YAML 1.1
%TAG !u! tag:unity3d.com,2011:
--- !u!114 &11400000
MonoBehaviour:
  m_ObjectHideFlags: 0
  m_CorrespondingSourceObject: {fileID: 0}
  m_PrefabInstance: {fileID: 0}
  m_PrefabAsset: {fileID: 0}
  m_GameObject: {fileID: 0}
  m_Enabled: 1
  m_EditorHideFlags: 0
  m_Script: {fileID: 11500000, guid: 8b92181e30435784dbc6e3e4b1b2bb6e, type: 3}
  m_Name: _ 18
  m_EditorClassIdentifier: 
  id: 18
  sprite: {fileID: 21300000, guid: 0b249811fee39d14e96a136a1454b709, type: 3}
  cardName: Galadriel the Forest Guardian
  description: 
  costResources: 0200000000000000
  costQtd: 0200000002000000
  category: 1
  collectskills:
  - {fileID: 11400000, guid: bf514e1ea546ce14bb62cbce93af71a9, type: 2}
  collectQtd: 02000000
  combatskills: []
  combatQtd: 
  clip: {fileID: 0}
  Status: {x: 2, y: 2}
  effect: {fileID: 0}
  keycode: 
