%YAML 1.1
%TAG !u! tag:unity3d.com,2011:
--- !u!114 &11400000
MonoBehaviour:
  m_ObjectHideFlags: 0
  m_CorrespondingSourceObject: {fileID: 0}
  m_PrefabInstance: {fileID: 0}
  m_PrefabAsset: {fileID: 0}
  m_GameObject: {fileID: 0}
  m_Enabled: 1
  m_EditorHideFlags: 0
  m_Script: {fileID: 11500000, guid: 8b92181e30435784dbc6e3e4b1b2bb6e, type: 3}
  m_Name: _ 40
  m_EditorClassIdentifier: 
  id: 40
  sprite: {fileID: 21300000, guid: 63c9806a9cfaae547bb11b87d37f8e50, type: 3}
  cardName: blacksmith Apprentice
  description: 
  costResources: 03000000
  costQtd: 01000000
  category: 1
  collectskills:
  - {fileID: 11400000, guid: 964bd5e03bc1cac449a0aa7e5dd26e8a, type: 2}
  collectQtd: 01000000
  combatskills: []
  combatQtd: 
  clip: {fileID: 0}
  Status: {x: 0, y: 1}
  effect: {fileID: 0}
  keycode: 
