%YAML 1.1
%TAG !u! tag:unity3d.com,2011:
--- !u!114 &11400000
MonoBehaviour:
  m_ObjectHideFlags: 0
  m_CorrespondingSourceObject: {fileID: 0}
  m_PrefabInstance: {fileID: 0}
  m_PrefabAsset: {fileID: 0}
  m_GameObject: {fileID: 0}
  m_Enabled: 1
  m_EditorHideFlags: 0
  m_Script: {fileID: 11500000, guid: 8b92181e30435784dbc6e3e4b1b2bb6e, type: 3}
  m_Name: _ 42
  m_EditorClassIdentifier: 
  id: 42
  sprite: {fileID: 21300000, guid: 995b2b69e4ea573469c7949a57013cb4, type: 3}
  cardName: Tornado
  description: Create a cyclone in the opponent's field
  costResources: 0000000003000000
  costQtd: 0400000004000000
  category: 4
  collectskills: []
  collectQtd: 
  combatskills: []
  combatQtd: 
  clip: {fileID: 0}
  Status: {x: 0, y: 0}
  effect: {fileID: 0}
  keycode: CFX_Tornado
