%YAML 1.1
%TAG !u! tag:unity3d.com,2011:
--- !u!114 &11400000
MonoBehaviour:
  m_ObjectHideFlags: 0
  m_CorrespondingSourceObject: {fileID: 0}
  m_PrefabInstance: {fileID: 0}
  m_PrefabAsset: {fileID: 0}
  m_GameObject: {fileID: 0}
  m_Enabled: 1
  m_EditorHideFlags: 0
  m_Script: {fileID: 11500000, guid: 8b92181e30435784dbc6e3e4b1b2bb6e, type: 3}
  m_Name: _ 5
  m_EditorClassIdentifier: 
  id: 5
  sprite: {fileID: 21300000, guid: a9d10c7b5aec88b459bbe1b8a3219c60, type: 3}
  cardName: Armored Knight
  description: 
  costResources: 0300000001000000
  costQtd: 0300000003000000
  category: 1
  collectskills: []
  collectQtd: 
  combatskills: []
  combatQtd: 
  clip: {fileID: 0}
  Status: {x: 4, y: 3}
  effect: {fileID: 0}
  keycode: 
