%YAML 1.1
%TAG !u! tag:unity3d.com,2011:
--- !u!114 &11400000
MonoBehaviour:
  m_ObjectHideFlags: 0
  m_CorrespondingSourceObject: {fileID: 0}
  m_PrefabInstance: {fileID: 0}
  m_PrefabAsset: {fileID: 0}
  m_GameObject: {fileID: 0}
  m_Enabled: 1
  m_EditorHideFlags: 0
  m_Script: {fileID: 11500000, guid: 8b92181e30435784dbc6e3e4b1b2bb6e, type: 3}
  m_Name: _ 62
  m_EditorClassIdentifier: 
  id: 50
  sprite: {fileID: 21300000, guid: 55ab061172476cb4a83440a020b7c1e3, type: 3}
  cardName: Belzzebub
  description: 
  costResources: 03000000
  costQtd: 0c000000
  category: 2
  collectskills: []
  collectQtd: 
  combatskills:
  - {fileID: 11400000, guid: 3f6c80a9a81a92049809f32a98ab055d, type: 2}
  combatQtd: 02000000
  clip: {fileID: 0}
  Status: {x: 4, y: 4}
  effect: {fileID: 0}
  keycode: CFX_Tornado
